[Elements]
Hydrogen Helium Lithium Beryllium Boron Carbon Nitrogen Oxygen Fluorine Neon Sodium Magnesium Aluminium Silicon Phosphor Sulphur Chlorine Argon Potassium Calcium Scandium Titanium Vanadium Chromium Manganese Iron Cobalt Nickel Copper Zinc Gallium Germanium Yttrium Silver Cadmium Tin Tellurium Iodine Caesium Gadolinium Lutetium Tungsten Thallium Lead Bismuth Uranium
[/Elements]
-10000  0 0 0 0 0 0.000124 0.75526798 0.23178101 0 0 0 0 0 0 0 0 0 0.012827 0 0 0 0 0 0 0 0 0 0 0 0 0 0 0 0 0 0 0 0 0 0 0 0 0 0 0 0  Air
-1000  0 0 0 0 0 0.000124 0.75526798 0.23178101 0 0 0 0 0 0 0 0 0 0.012827 0 0 0 0 0 0 0 0 0 0 0 0 0 0 0 0 0 0 0 0 0 0 0 0 0 0 0 0  Air
-800  0.101278 0 0 0 0 0.10231 0.02865 0.75707197 0 0 0.00184 0.00073 0 0 0.0008 0.00225 0.00266 0 0.00194 0.00009 0 0 0 0 0 0.00037 0 0 0 0.00001 0 0 0 0 0 0 0 0 0 0 0 0 0 0 0 0  Lung
-554  0.119477 0 0 0 0 0.63723999 0.00797 0.232333 0 0 0.0005 0.00002 0 0 0.00016 0.00073 0.00119 0 0.00032 0.00002 0 0 0 0 0 0.00002 0 0 0 0.00002 0 0 0 0 0 0 0 0 0 0 0 0 0 0 0 0  Tissue_Adipose
-257  0.104472 0 0 0 0 0.23219 0.02488 0.630238 0 0 0.00113 0.00013 0 0 0.00133 0.00199 0.00134 0 0.00199 0.00023 0 0 0 0 0 0.00005 0 0 0 0.00003 0 0 0 0 0 0 0 0 0 0 0 0 0 0 0 0  Tissue_Soft
150  0.047234 0 0 0 0 0.14432999 0.04199 0.446096 0 0 0 0.0022 0 0 0.10497 0.00315 0 0 0 0.20993 0 0 0 0 0 0 0 0 0 0.0001 0 0 0 0 0 0 0 0 0 0 0 0 0 0 0 0  Bone
2000  0.047234 0 0 0 0 0.14432999 0.04199 0.446096 0 0 0 0.0022 0 0 0.10497 0.00315 0 0 0 0.20993 0 0 0 0 0 0 0 0 0 0.0001 0 0 0 0 0 0 0 0 0 0 0 0 0 0 0 0  Bone
10000  0.047234 0 0 0 0 0.14432999 0.04199 0.446096 0 0 0 0.0022 0 0 0.10497 0.00315 0 0 0 0.20993 0 0 0 0 0 0 0 0 0 0.0001 0 0 0 0 0 0 0 0 0 0 0 0 0 0 0 0  Bone
